…
Next, we import the data. Here we use the `data_bmi.csv` on the Dutch
males ages 0-85 in 2006 and 2007 (POLS survey). The data are available
on this GitHub repository.

``` r
# Read BMI data of Dutch males aged 0-85 in 2006/2007
data_bmi <- read_csv(
  file = "data_bmi.csv",
  show_col_types = FALSE)

# Show data_bmi
print(data_bmi)
```

    # A tibble: 86 × 4
         age normal overweight obese
       <dbl>  <dbl>      <dbl> <dbl>
     1     0     32          1     1
     2     1     47          0     2
     3     2     52          0     2
     4     3     55          0     1
     5     4     46          0     0
     6     5     68          0     0
     7     6     59          0     0
     8     7     53          0     0
     9     8     61          1     0
    10     9     40          0     0
    # … with 76 more rows
…
# Check by counting them again
data_bmi |> 
  count(
    age, BMI_cat)
```

    # A tibble: 239 × 3
         age BMI_cat        n
       <dbl> <chr>      <int>
     1     0 normal        32
     2     0 obese          1
     3     0 overweight     1
     4     1 normal        47
     5     1 obese          2
     6     2 normal        52
     7     2 obese          2
     8     3 normal        55
     9     3 obese          1
    10     4 normal        46
    # … with 229 more rows
…
# Check
data_bmi |>
  count(
    age, BMI_cat)
```

    # A tibble: 239 × 3
         age BMI_cat        n
       <dbl> <fct>      <int>
     1     0 normal        32
     2     0 overweight     1
     3     0 obese          1
     4     1 normal        47
     5     1 obese          2
     6     2 normal        52
     7     2 obese          2
     8     3 normal        55
     9     3 obese          1
    10     4 normal        46
    # … with 229 more rows
…
``` r
# Create new data with BMI categories and ages
# Add prev_stat
newdata_bmi <- bind_cols(
  expand_grid(
    BMI_cat = levels(data_bmi$BMI_cat) |> fct_inorder(),
    age = age_pred),
  prev_stat)

# Show newdata_bmi
print(newdata_bmi)
```

    # A tibble: 273 × 5
       BMI_cat   age median lower upper
       <fct>   <int>  <dbl> <dbl> <dbl>
     1 normal      0  0.987 0.967 0.994
     2 normal      1  0.986 0.969 0.993
     3 normal      2  0.986 0.970 0.992
     4 normal      3  0.985 0.971 0.991
     5 normal      4  0.983 0.971 0.990
     6 normal      5  0.982 0.970 0.989
     7 normal      6  0.980 0.969 0.987
     8 normal      7  0.978 0.967 0.985
     9 normal      8  0.976 0.965 0.983
    10 normal      9  0.973 0.961 0.980
    # … with 263 more rows
…
``` r
# Create a tidy tibble with the transition probabilities for each age
trans_prob_data <- bind_cols(
  expand_grid(
    from = levels(data_bmi$BMI_cat) |> fct_inorder(),
    to = levels(data_bmi$BMI_cat) |> fct_inorder(),
    age = age_pred[-n_pred]),
  trans_prob_stat)

# Show trans_prob_data
print(trans_prob_data)
```

    # A tibble: 810 × 6
       from   to       age median lower upper
       <fct>  <fct>  <int>  <dbl> <dbl> <dbl>
     1 normal normal     0  0.999 0.999 1    
     2 normal normal     1  0.999 0.998 1    
     3 normal normal     2  0.999 0.998 1    
     4 normal normal     3  0.999 0.998 1    
     5 normal normal     4  0.999 0.998 1    
     6 normal normal     5  0.998 0.997 1.00 
     7 normal normal     6  0.998 0.997 0.999
     8 normal normal     7  0.997 0.996 0.999
     9 normal normal     8  0.997 0.996 0.998
    10 normal normal     9  0.996 0.995 0.997
    # … with 800 more rows
…
